<svg width="24" height="30" viewBox="0 0 24 30" fill="none" xmlns="http://www.w3.org/2000/svg">
<path d="M23.8046 22.1824C23.8046 23.8241 23.3355 25.2313 22.456 26.2867C21.5765 27.4007 20.4039 28.2215 18.8795 28.7492C17.4137 29.2769 15.772 29.57 13.9544 29.57H0V0.781769H16.0065C17.355 0.781769 18.5277 1.13356 19.5244 1.83714C20.5212 2.54073 21.2834 3.47884 21.8111 4.59284C22.3388 5.70685 22.6319 6.87949 22.6319 8.11076C22.6319 9.45929 22.2801 10.7492 21.5765 11.9805C20.873 13.2117 19.8176 14.1498 18.4691 14.7362C20.1107 15.2052 21.4007 16.0847 22.3974 17.316C23.3355 18.6645 23.8046 20.2476 23.8046 22.1824ZM6.68404 6.46907V12.4495H13.1922C13.6612 12.4495 14.1303 12.3323 14.5407 12.0977C14.9511 11.8632 15.3029 11.57 15.5961 11.101C15.8893 10.6319 16.0065 10.1042 16.0065 9.40066C16.0065 8.75571 15.8893 8.22802 15.6547 7.75897C15.4202 7.34854 15.127 6.99675 14.7166 6.76223C14.3648 6.5277 13.8958 6.41043 13.4267 6.41043H6.68404V6.46907ZM17.0619 20.8925C17.0619 20.2476 16.9446 19.7199 16.7101 19.2508C16.4756 18.7818 16.1238 18.3713 15.772 18.1368C15.3616 17.8437 14.8925 17.7264 14.3648 17.7264H6.68404V23.9414H14.0717C14.658 23.9414 15.127 23.8241 15.5961 23.531C16.0651 23.2378 16.4169 22.886 16.6515 22.4169C16.886 22.0065 17.0619 21.4788 17.0619 20.8925Z" fill="#2580C0"/>
</svg>
